…
``` r
birthweight_data
```

    ## # A tibble: 4,342 × 20
    ##    babysex bhead blength   bwt delwt fincome frace gaweeks malform menarche
    ##    <fct>   <dbl>   <dbl> <dbl> <dbl>   <dbl> <fct>   <dbl> <fct>      <dbl>
    ##  1 female     34      51  3629   177      35 White    39.9 absent        13
    ##  2 male       34      48  3062   156      65 Black    25.9 absent        14
    ##  3 female     36      50  3345   148      85 White    39.9 absent        12
    ##  4 male       34      52  3062   157      55 White    40   absent        14
    ##  5 female     34      52  3374   156       5 White    41.6 absent        13
    ##  6 male       33      52  3374   129      55 White    40.7 absent        12
    ##  7 female     33      46  2523   126      96 Black    40.3 absent        14
    ##  8 female     33      49  2778   140       5 White    37.4 absent        12
    ##  9 male       36      52  3515   146      85 White    40.3 absent        11
    ## 10 male       33      50  3459   169      75 Black    40.7 absent        12
    ## # … with 4,332 more rows, and 10 more variables: mheight <dbl>, momage <dbl>,
    ## #   mrace <fct>, parity <dbl>, pnumlbw <dbl>, pnumsga <dbl>, ppbmi <dbl>,
    ## #   ppwt <dbl>, smoken <dbl>, wtgain <dbl>
…
cv
```

    ## # A tibble: 100 × 9
    ##    train                 test  .id   model_1 model_2 model_3 rmse_model_1 rmse_model_2
    ##    <list>                <lis> <chr> <list>  <list>  <list>         <dbl>        <dbl>
    ##  1 <tibble [3,473 × 20]> <tib… 001   <lm>    <lm>    <lm>            288.         360.
    ##  2 <tibble [3,473 × 20]> <tib… 002   <lm>    <lm>    <lm>            276.         322.
    ##  3 <tibble [3,473 × 20]> <tib… 003   <lm>    <lm>    <lm>            269.         307.
    ##  4 <tibble [3,473 × 20]> <tib… 004   <lm>    <lm>    <lm>            292.         337.
    ##  5 <tibble [3,473 × 20]> <tib… 005   <lm>    <lm>    <lm>            292.         367.
    ##  6 <tibble [3,473 × 20]> <tib… 006   <lm>    <lm>    <lm>            274.         314.
    ##  7 <tibble [3,473 × 20]> <tib… 007   <lm>    <lm>    <lm>            282.         357.
    ##  8 <tibble [3,473 × 20]> <tib… 008   <lm>    <lm>    <lm>            295.         346.
    ##  9 <tibble [3,473 × 20]> <tib… 009   <lm>    <lm>    <lm>            279.         327.
    ## 10 <tibble [3,473 × 20]> <tib… 010   <lm>    <lm>    <lm>            281.         338.
    ## # … with 90 more rows, and 1 more variable: rmse_model_3 <dbl>
…
